{
  "definitions": {},
  "$schema": "http://json-schema.org/draft-07/schema#",
  "$id": "http://example.com/root.json",
  "type": "array",
  "title": "The Root Schema",
  "items": {
    "$id": "#/items",
    "type": "object",
    "title": "The Items Schema",
    "required": [
      "candyID",
      "name",
      "type",
      "ingredients",
      "value",
      "production",
      "energy"
    ],
    "properties": {
      "candyID": {
        "$id": "#/items/properties/candyID",
        "type": "string",
        "title": "The Candyid Schema",
        "default": "",
        "examples": [
          "0"
        ],
        "pattern": "^(.*)$"
      },
      "name": {
        "$id": "#/items/properties/name",
        "type": "string",
        "title": "The Name Schema",
        "default": "",
        "examples": [
          "Mamma"
        ],
        "pattern": "^(.*)$"
      },
      "type": {
        "$id": "#/items/properties/type",
        "type": "string",
        "title": "The Type Schema",
        "default": "",
        "examples": [
          "chocolate"
        ],
        "pattern": "^(.*)$"
      },
      "ingredients": {
        "$id": "#/items/properties/ingredients",
        "type": "object",
        "title": "The Ingredients Schema",
        "required": [
          "sugar",
          "syrup",
          "milk"
        ],
        "properties": {
          "sugar": {
            "$id": "#/items/properties/ingredients/properties/sugar",
            "type": "integer",
            "title": "The Sugar Schema",
            "default": 0,
            "examples": [
              10
            ]
          },
          "syrup": {
            "$id": "#/items/properties/ingredients/properties/syrup",
            "type": "integer",
            "title": "The Syrup Schema",
            "default": 0,
            "examples": [
              4
            ]
          },
          "milk": {
            "$id": "#/items/properties/ingredients/properties/milk",
            "type": "integer",
            "title": "The Milk Schema",
            "default": 0,
            "examples": [
              15
            ]
          }
        }
      },
      "value": {
        "$id": "#/items/properties/value",
        "type": "object",
        "title": "The Value Schema",
        "required": [
          "proteins",
          "fat",
          "carbohydrates"
        ],
        "properties": {
          "proteins": {
            "$id": "#/items/properties/value/properties/proteins",
            "type": "integer",
            "title": "The Proteins Schema",
            "default": 0,
            "examples": [
              5
            ]
          },
          "fat": {
            "$id": "#/items/properties/value/properties/fat",
            "type": "integer",
            "title": "The Fat Schema",
            "default": 0,
            "examples": [
              0
            ]
          },
          "carbohydrates": {
            "$id": "#/items/properties/value/properties/carbohydrates",
            "type": "integer",
            "title": "The Carbohydrates Schema",
            "default": 0,
            "examples": [
              10
            ]
          }
        }
      },
      "production": {
        "$id": "#/items/properties/production",
        "type": "string",
        "title": "The Production Schema",
        "default": "",
        "examples": [
          "Sugar Mamma"
        ],
        "pattern": "^(.*)$"
      },
      "energy": {
        "$id": "#/items/properties/energy",
        "type": "integer",
        "title": "The Energy Schema",
        "default": 0,
        "examples": [
          400
        ]
      }
    }
  }
}